{
    "metadata": {
        "servicename": "VM",
        "schemaversion": "1.0.1",
        "owningteam": "networkautomation",
        "service_dependancies": [],
        "requires": {
            "application": [
                "name",
                "application_ci"
            ],
            "team": [
                "name",
                "budget_code"
            ]
        }
    },
    "name": {
        "type": "string",
        "examples": [
            "VM_01"
        ]
    },
    "cpu": {
        "type": "integer",
        "title": "cpu cores",
        "description": "Number of cpu cores",
        "default": 2,
        "examples": [
            2
        ]
    },
    "memory": {
        "type": "integer",
        "title": "Memory",
        "description": "Memory in GB",
        "default": 4,
        "examples": [
            16
        ]
    }
}
